Employee ID,First Name,Last Name,Warehouse ID,SSN,Date of Birth,Start Date,End Date,Address,City,State,ZIP,Position ID,Memo,Phone,Cell,Salary,Hourly Rate,Review
1,David,Bowers,WA-1,154-00-3785,1958-09-12,2003-01-22,,10124 Metropolitan Drive,Seattle,WA,98117,1,,(206) 246-5132,(206) 575-4321,72000,,
2,Robert,Iko,WA-1,705-24-6513,1974-12-16,2011-12-15,,698 Round Mountain,Seattle,WA,98124,7,,(206) 547-2315,(206) 487-5312,59500,,2015-06-15
3,Virginia,Sanchez,WA-1,724-56-8132,1968-10-24,2009-06-10,,201 River Road,Spokane,WA,99215,2,Emergency contact for alarm company,(509) 345-1687,(509) 634-8732,48500,,2015-12-15
4,Eric,Behrens,WY-1,956-34-6120,1975-02-14,2010-09-12,2015-02-15,21 Adrian Way,Jackson Hole,WY,83005,3,,(307) 546-1272,(307) 576-3154,,12.5,
7,Brian,Castillo,OR-1,923-54-6124,1970-08-14,2006-06-14,,52 Denton Drive #49,Portland,OR,97205,3,,(503) 574-2742,(503) 564-7154,,12.75,2016-06-14
8,Cynthia,Cox,OR-1,854-23-0000,1958-10-06,2011-12-30,,1515 Patterson Road,Portland,OR,97210,2,,(503) 241-2423,(503) 549-6113,50000,,2015-06-30
9,John,Maestas,WA-1,487-00-2468,1975-11-24,2006-11-15,,5506 Beach Street West,Spokane,WA,99216,4,Speaks fluent Spanish,(509) 674-1543,(509) 378-2312,42500,,2015-11-01
10,Mark,Cumberland,OR-1,705-43-5126,1976-07-30,2007-10-01,2015-03-15,16542 Angus Road #280,Portland,OR,97206,6,,(503) 248-6453,(503) 278-6424,,12.25,
11,Darnell,Colmenero,WA-1,723-54-9785,1977-04-05,2007-09-02,,6000 Balcones Drive,Seattle,WA,98113,3,,(206) 347-5354,(206) 354-7215,,15,2016-09-15
12,James,Lu,WY-1,709-56-4321,1969-12-31,2010-02-24,,5003 Mallard Avenue #587,Jackson Hole,WY,83001,2,Speaks fluent Chinese,(307) 678-4513,(307) 246-8732,48500,,2015-02-24
13,Barry,Orosco,WA-1,723-24-6875,1964-07-04,2011-03-21,2015-05-15,2006 Kenosha Pass,Spokane,WA,99216,5,,(509) 345-1357,(509) 357-5166,,9.75,
14,Richard,Hargadon,WA-1,984-65-1372,1971-03-01,2011-07-15,,901 Great Oaks Cove,Seattle,WA,98154,6,,(206) 354-7987,(206) 354-1287,,10.5,2015-08-15
15,John,Nader,WY-1,905-34-6755,1972-04-24,2006-08-01,,321 Sturgis,Jackson Hole,WY,83001,3,,(307) 546-7135,(307) 246-8731,,11.25,2016-08-01
16,George,Medrano,WA-1,546-57-0000,1974-04-10,2011-10-15,,3987 NW 87th Street #8,Seattle,WA,98124,6,,(206) 341-2024,(206) 324-1200,,11.25,2016-10-15
17,Rachel,Goodman,OR-1,978-45-1342,1977-06-21,2009-11-03,,9876 Parker Street,Portland,OR,97204,5,On maternity leave through 12/2016,(503) 241-5756,(503) 217-5613,,12.75,2016-01-15
18,Shayla,Anderson,WA-1,926-54-3210,1978-09-28,2008-09-24,,4321 Barton Cliff Drive,Seattle,WA,98124,6,,(206) 321-4571,(206) 321-8756,,12.5,2016-09-15
19,Alfonso,Ozmun,WA-1,946-53-2100,1980-05-30,2010-06-15,,510 Immanuel Avenue,Seattle,WA,98126,5,,(206) 312-4024,(206) 249-7513,,12,2016-02-28
20,Sophia,Nunis,WA-1,987-45-1372,1979-12-12,2011-10-20,,5471 Wyoming Springs Way,Spokane,WA,99214,6,,(509) 347-8992,(509) 897-3246,,12,2016-01-15
21,Dora,Nettles,WA-1,723-24-6512,1978-10-14,2007-10-21,,24 Frontier Trail NE,Seattle,WA,98123,3,,(206) 754-6512,(206) 579-5462,,14.75,2016-02-15
22,Kristina,Romano,WA-1,704-51-3547,1977-06-20,2006-05-20,,8 Anderson Loop,Seattle,WA,98113,4,,(206) 244-9876,(206) 274-8648,45000,,2016-05-01
23,Doug,Hearne,OR-1,722-15-4321,1982-05-21,2009-01-15,,11 Lost Pine Trail,Portland,OR,97204,6,,(503) 246-2465,(503) 765-4354,,12.75,2016-01-15
24,Tom,Murphy,OR-1,701-54-3216,1977-06-05,2009-02-16,,4007 James White Avenue,Portland,OR,97214,6,,(503) 247-1355,(503) 754-3257,,13,2016-03-15
25,Felicia,Castro,OR-1,724-21-6452,1980-09-14,2010-03-16,,611 Montclaire Street,Portland,OR,97226,6,,(503) 754-3871,(503) 475-7135,,12.5,2016-03-15
26,Gene,Chiles,OR-1,954-32-1642,1982-07-05,2009-03-01,,2506 Ferguson Lane #411,Portland,OR,97215,6,,(503) 279-8246,(503) 246-7835,,12.5,2016-03-01
27,Kirby,Meyer,OR-1,984-65-1357,1980-11-12,2010-05-31,,110 Ponderosa,Portland,OR,97209,4,,(503) 271-6579,(503) 279-5132,42500,,2015-12-15
28,Jim,Bostic,OR-1,454-00-6543,1979-12-12,2010-07-06,,1201 Chestnut Avenue #2,Portland,OR,97211,6,,(503) 271-5496,(503) 216-4573,,11.75,2016-07-01
29,Leland,McKeeman,WY-1,963-12-4672,1978-11-01,2009-09-25,,79513 Airport Blvd.,Jackson Hole,WY,83005,3,,(307) 246-2135,(307) 246-2465,,14.5,2016-09-01
30,Wade,Ragland,WY-1,706-32-4675,1980-03-01,2009-09-25,,9714 Circle Drive,Jackson Hole,WY,83005,4,,(307) 274-9264,(307) 224-3241,43500,,2016-09-01
31,Cynthia,Zucker,WY-1,705-31-5790,1967-08-22,2006-06-22,,304 Ridgewood Drive #1,Jackson Hole,WY,83002,6,,(307) 555-6432,(307) 246-5796,,11.5,2015-06-01
32,Lisa,Virr,WY-1,421-00-1579,1980-11-28,2011-11-16,,10086 Wells Parkway,Jackson Hole,WY,83010,5,,(307) 274-6313,(307) 215-4324,,11.5,2015-11-15
33,Shane,Pichardo,WY-1,987-46-5137,1983-12-14,2011-01-29,,8301 Alvin High Blvd.,Jackson Hole,WY,83011,6,,(307) 555-3216,(307) 246-8763,,11.5,2015-01-15
34,Richard,Pena,WY-1,716-54-3272,1981-02-24,2011-04-26,,5713 Mystic Street,Jackson Hole,WY,83012,6,,(307) 245-6876,(307) 213-2762,,11.75,2015-11-25
35,Jason,Collins,WY-1,722-16-5711,1980-10-14,2010-08-01,,10275 Sam Bass Road,Jackson Hole,WY,83012,6,,(307) 262-3546,(307) 266-4533,,11.85,2015-08-01
