UnitID,WarehouseID,UnitSize,Rent
1,OR-1,8 x 8,25.00
1,WA-1,12 x 12,35.00
1,WY-1,12 x 12,45.00
2,OR-1,8 x 12,30.00
2,WA-1,12 x 12,35.00
2,WY-1,12 x 12,45.00
3,OR-1,8 x 8,25.00
3,WA-1,9 x 12,30.00
3,WY-1,12 x 12,45.00
4,OR-1,8 x 12,30.00
4,WA-1,9 x 12,30.00
4,WY-1,12 x 18,70.00
5,OR-1,8 x 8,25.00
5,WA-1,12 x 12,85.00
5,WY-1,12 x 18,70.00
6,OR-1,8 x 12,30.00
6,WA-1,12 x 12,85.00
6,WY-1,12 x 12,45.00
7,OR-1,8 x 10,25.00
7,WA-1,12 x 10,80.00
7,WY-1,12 x 12,85.00
8,OR-1,15 x 15,95.00
8,WA-1,12 x 10,80.00
8,WY-1,12 x 8,35.00
9,OR-1,15 x 15,95.00
9,WA-1,18 x 18,115.00
9,WY-1,15 x 15,95.00
10,OR-1,15 x 15,95.00
10,WA-1,18 x 18,115.00
10,WY-1,18 x 18,115.00
